<svg xmlns="http://www.w3.org/2000/svg" fill="none" viewBox="0 0 50 52">
  <path fill="#5BA84A" d="M25 14.3196c1.8468 0 3.3492-1.4961 3.3492-3.335 0-1.83889-1.5023-3.33494-3.3492-3.33494-1.8469 0-3.3492 1.49605-3.3492 3.33494 0 1.8389 1.5024 3.335 3.3492 3.335zm0-5.56345c1.234 0 2.2381.99973 2.2381 2.22855 0 1.2289-1.004 2.2286-2.2381 2.2286-1.2341 0-2.2381-.9997-2.2381-2.2286 0-1.22882 1.004-2.22855 2.2381-2.22855z"/>
  <path fill="#5BA84A" d="M14.6991 30.6763c.0878.2027.2883.3341.5101.3341s.4222-.1314.5101-.3341c.4587-1.0587 1.1741-2.0386 2.0859-2.8661.2943.5274.6119 1.0442.9536 1.5483.1842.2718.5627.324.8144.1169.3295-.2712.6789-.5142 1.0428-.7313.1621 2.8484 1.6607 5.4472 4.0792 7.0265.1838.1199.4228.1218.6093 0 2.4187-1.5792 3.9172-4.178 4.0793-7.0265.3639.2171.7133.4601 1.0429.7313.2533.2087.6314.1531.8144-.1169.3417-.5042.6592-1.0209.9536-1.5483.9117.8275 1.6272 1.8074 2.0858 2.8661.1926.4446.8277.4444 1.0203 0 .4677-1.0797.705-2.215.705-3.3744 0-1.8054-.58-3.5543-1.6777-5.0762 1.9016-8.4931-1.6178-17.29921-9.0236-22.1350874-.1851-.1208168-.4242-.1208168-.6093 0C17.2968 4.92173 13.7683 13.7248 15.6718 22.2257c-1.8527 2.5683-2.1634 5.7023-.9727 8.4506zM25 34.6362c-2.1346-1.5376-3.3099-3.9729-3.2879-6.4445 2.0528-.8538 4.4063-.9023 6.5758 0 0 2.6819-1.2894 5.0049-3.2879 6.4445zm9.6802-5.5773c-.5184-.83-1.1794-1.5948-1.9564-2.2609.4909-1.0051.8987-2.0448 1.2205-3.1113.9435 1.7017 1.1766 3.5966.7359 5.3722zM25 1.21857c8.9659 6.08808 11.3313 18.07713 5.6447 27.02663-3.4075-2.4523-7.9616-2.3948-11.2894 0C13.6739 19.3036 16.0224 7.31461 25 1.21857zM16.0555 23.6868c.3218 1.0665.7297 2.1063 1.2206 3.1112-.7769.6661-1.4379 1.431-1.9563 2.2609-.4404-1.7756-.2081-3.6699.7357-5.3721z"/>
  <path fill="#5BA84A" d="M20.1278 21.0812c-.1858.243-.1385.5902.1056.7752.2446.1855.5931.1374.7785-.1051 1.878-2.4567 6.1001-2.4542 7.9761 0 .1858.2431.5342.2902.7786.1051.2441-.185.2914-.5322.1055-.7752-2.3137-3.0269-7.4151-3.047-9.7443 0z"/>
  <path fill="#5BA84A" d="M19.155 19.0749c.2442.1852.5928.138.7785-.1051 2.3893-3.1259 7.7465-3.122 10.1328 0 .1092.143.275.2182.4425.2182.4526 0 .7222-.5211.4416-.8883-2.8282-3.7001-9.0655-3.7097-11.901 0-.1859.2431-.1385.5901.1056.7752zM49.4444 35.4674c-3.0234 0-5.7604 1.6179-7.2133 4.2421-.8652.1309-1.6895.4447-2.4231.9214-.8969-1.0651-2.2174-1.6863-3.6334-1.6863-1.8107 0-3.4503 1.0393-4.2434 2.611-1.7423-1.4136-4.1796-1.6172-6.1235-.515-2.3149-2.9769-6.9265-2.7462-8.9227.4604-2.187-.9055-4.8149-.5093-6.6294 1.2456-1.64249-3.7221-6.06116-5.5514-9.922489-3.8707C.130778 38.964 0 39.163 0 39.3829v12.0639C0 51.7523.248778 52 .555556 52H49.4444c.3069 0 .5556-.2477.5556-.5532V36.0206c0-.3056-.2487-.5532-.5556-.5532zm-.5555 15.4261H1.11111V39.7554c3.52578-1.3083 7.384.7028 8.40933 4.2089.12778.4367.70286.5417.97766.1776 1.5516-2.057 4.2716-2.5256 6.3625-1.4315.2767.1446.619.034.757-.2456 1.5067-3.0512 5.7724-3.2443 7.5684-.38.1698.2709.534.3421.794.1574 1.8037-1.2813 4.2826-.9952 5.7508.6488.2915.326.8295.2026.9493-.2158.4429-1.5452 1.88-2.6244 3.4947-2.6244 1.2339 0 2.3734.6164 3.0483 1.6487.1782.2731.5548.3344.811.1317.7546-.5965 1.657-.9627 2.6096-1.0589.1884-.0192.354-.1324.4395-.3006 1.1377-2.2385 3.3288-3.6875 5.8059-3.8769l-.0002 14.2987z"/>
  <path fill="#5BA84A" d="M5.44443 44.5083c-1.07656 0-1.95234.8721-1.95234 1.944 0 1.072.87578 1.944 1.95234 1.944 1.07655 0 1.95233-.8721 1.95233-1.944 0-1.0719-.87578-1.944-1.95233-1.944zm0 2.7818c-.46389 0-.84122-.3758-.84122-.8377s.37733-.8376.84122-.8376c.46389 0 .84122.3758.84122.8376s-.37733.8377-.84122.8377zM28.4921 45.2036c-.3069 0-.5555.2476-.5555.5532 0 .8454-.6908 1.5331-1.5397 1.5331-.8489 0-1.5397-.6878-1.5397-1.5331 0-.3056-.2487-.5532-.5555-.5532-.3068 0-.5556.2476-.5556.5532 0 1.4553 1.1892 2.6395 2.6508 2.6395 1.4617 0 2.6508-1.1842 2.6508-2.6395 0-.3056-.2488-.5532-.5556-.5532zM36.8294 45.0281c-.217.2161-.217.5664 0 .7824.2168.2159.5688.2159.7856 0 .6004-.5978 1.577-.5978 2.1775 0 .6003.5977.6003 1.5703 0 2.1681-.217.2161-.217.5664 0 .7823.2168.2161.5688.2161.7856 0 1.0337-1.0291 1.0337-2.7037 0-3.7328-1.0335-1.029-2.7152-1.029-3.7487 0zM15.6126 45.9765c-.6485.6457-.6485 1.6963 0 2.342.217.2161.5686.2161.7856 0 .217-.216.217-.5662 0-.7823-.2152-.2142-.2152-.563 0-.7773.2152-.2144.5653-.2144.7807 0 .2169.2161.5688.2161.7857 0 .217-.216.217-.5663-.0001-.7823-.6485-.6457-1.7036-.6454-2.3519-.0001zM45.8829 43.928c.217-.216.217-.5663 0-.7824-.2151-.2142-.2151-.5629 0-.7772.2154-.2144.5655-.2142.7806 0 .2168.216.5688.216.7856 0 .217-.216.217-.5663 0-.7823-.6485-.6456-1.7035-.6458-2.3519 0-.6484.6457-.6484 1.6963 0 2.342.2169.2159.5689.2159.7857-.0001zM30 32.0852v4.4255c0 .3055.2487.5532.5556.5532.3068 0 .5555-.2477.5555-.5532v-4.4255c0-.3056-.2487-.5532-.5555-.5532-.3069 0-.5556.2476-.5556.5532zM32.2222 30.9785v6.6383c0 .3054.2487.5531.5556.5531.3069 0 .5555-.2477.5555-.5531v-6.6383c0-.3056-.2486-.5532-.5555-.5532s-.5556.2476-.5556.5532zM27.7778 34.851v3.8724c0 .3055.2487.5532.5555.5532.3069 0 .5556-.2477.5556-.5532V34.851c0-.3055-.2487-.5531-.5556-.5531-.3068 0-.5555.2476-.5555.5531zM18.8889 32.0852v2.7659c0 .3055.2488.5532.5556.5532.3067 0 .5555-.2477.5555-.5532v-2.7659c0-.3056-.2488-.5532-.5555-.5532-.3068 0-.5556.2476-.5556.5532zM16.6667 32.0852v6.6383c0 .3054.2488.5532.5555.5532.3068 0 .5556-.2478.5556-.5532v-6.6383c0-.3056-.2488-.5532-.5556-.5532-.3067 0-.5555.2476-.5555.5532zM38.6111 3.31875c.4602 0 .8333-.37151.8333-.82978 0-.45828-.3731-.82979-.8333-.82979-.4602 0-.8333.37151-.8333.82979 0 .45827.3731.82978.8333.82978zM47.5 20.4679c.4603 0 .8334-.3715.8334-.8298 0-.4582-.3731-.8298-.8334-.8298-.4602 0-.8333.3716-.8333.8298 0 .4583.3731.8298.8333.8298zM39.7222 35.404c.4602 0 .8333-.3715.8333-.8298s-.3731-.8298-.8333-.8298c-.4602 0-.8333.3715-.8333.8298s.3731.8298.8333.8298zM38.6111 24.8932c.4602 0 .8333-.3715.8333-.8298 0-.4582-.3731-.8298-.8333-.8298-.4602 0-.8333.3716-.8333.8298 0 .4583.3731.8298.8333.8298zM9.16667 25.9997c.46023 0 .83333-.3715.83333-.8298s-.3731-.8298-.83333-.8298c-.46024 0-.83334.3715-.83334.8298s.3731.8298.83334.8298zM4.72222 34.2978c.46023 0 .83333-.3715.83333-.8298s-.3731-.8298-.83333-.8298c-.46024 0-.83334.3715-.83334.8298s.3731.8298.83334.8298z"/>
</svg>
