<svg xmlns="http://www.w3.org/2000/svg" fill="none" viewBox="0 0 42 50">
  <path fill="#5BA84A" d="M22.3231 21.0972c-.5207-.2147-.9671-.31-1.0551-.3356v-1.1855c.5888.0864 1.2828.4683 1.3615.5754l.6127-1.1855c-.2383-.1395-.5191-.2759-.8425-.4098-.3234-.1337-.6694-.2179-1.0382-.2528v-.8803h-.5872v.8803c-.8009.0859-1.4625.4419-1.787 1.1899-.1943.4477-.1948 1.0436-.0554 1.4165.1435.3837.4419.6349.8041.815.4542.2265.9389.3422 1.1318.4054v1.1594c-.7613-.1082-1.5574-.5529-1.6764-.7062l-.6127 1.2465c.64.437 1.4513.6834 2.1956.7498v1.0199h.5871v-1.0112c.7902-.0339 1.5365-.3156 1.8892-1.0372.2212-.4535.2215-1.1535.0383-1.5778-.1483-.3429-.4242-.6529-.9658-.8762zm-1.455-.4577c-.1987-.0639-.3476-.138-.4468-.2222-.0992-.0842-.1489-.199-.1489-.3443 0-.3021.1985-.4707.5957-.5056v1.0721zm.3999 2.6674v-1.046c.1984.0697.3572.1468.4764.231.1192.0843.1787.202.1787.353.0001.2906-.2183.4445-.6551.462z"/>
  <path fill="#5BA84A" d="M21 15.4067c-3.2861 0-5.9594 2.7385-5.9594 6.1047 0 3.3661 2.6733 6.1047 5.9594 6.1047 3.286 0 5.9595-2.7386 5.9595-6.1047 0-3.3661-2.6735-6.1047-5.9595-6.1047zm0 11.0466c-2.6602 0-4.8243-2.2169-4.8243-4.9419 0-2.725 2.1641-4.9419 4.8243-4.9419s4.8243 2.2169 4.8243 4.9419c0 2.725-2.1641 4.9419-4.8243 4.9419z"/>
  <path fill="#5BA84A" d="M21.2038 4.65243C12.1985 4.53824 4.69914 11.9425 4.54317 21.2141c-.10647 6.3234 3.22264 12.0931 8.54733 15.0858l-.9225 1.4575c-.8029 1.2686.0842 2.9402 1.5597 2.9402h14.5448c1.4757 0 2.3623-1.672 1.5596-2.9402l-.9226-1.4575c5.2106-2.9294 8.5499-8.548 8.5499-14.7885 0-9.2246-7.2318-16.74688-16.2556-16.85897zm6.6371 30.90847c-.3019.1543-.4071.5448-.2225.8363l1.2612 1.9928c.3125.4936-.0327 1.1448-.6073 1.1448H13.7277c-.5745 0-.9197-.6511-.6073-1.1448l1.2612-1.9928c.1849-.2922.0787-.6822-.2225-.8363-5.25327-2.6895-8.58228-8.3131-8.48114-14.3267C5.82167 12.699 12.7617 5.7158 21.1899 5.8151c8.3452.10372 15.1344 7.1451 15.1344 15.6963 0 5.987-3.2507 11.3705-8.4834 14.0495z"/>
  <path fill="#5BA84A" d="M21 9.88379c-6.2591 0-11.35135 5.21631-11.35135 11.62791S14.7409 33.1396 21 33.1396c6.2592 0 11.3513-5.2162 11.3513-11.6279 0-6.4116-5.0921-11.62791-11.3513-11.62791zm0 22.09311c-5.6332 0-10.2162-4.6947-10.2162-10.4652 0-5.7705 4.583-10.4651 10.2162-10.4651s10.2162 4.6946 10.2162 10.4651c0 5.7705-4.583 10.4652-10.2162 10.4652zM21 3.55487c.3135 0 .5675-.26035.5675-.58139V.581394C21.5675.260348 21.3135 0 21 0c-.3136 0-.5676.260348-.5676.581394V2.97336c0 .32116.254.58151.5676.58151zM34.1981 8.8142l1.6511-1.69139c.2217-.22709.2217-.59523 0-.82221-.2214-.22697-.581-.22697-.8025 0l-1.6512 1.69139c-.2217.2271-.2217.59523 0 .82221.2214.22709.581.22698.8026 0zM38.5298 21.5118c0 .3211.254.5814.5676.5814h2.335c.3136 0 .5676-.2603.5676-.5814 0-.321-.254-.5814-.5676-.5814h-2.335c-.3136 0-.5676.2604-.5676.5814zM.567567 22.0931H2.90265c.31341 0 .56757-.2603.56757-.5814 0-.321-.25416-.5814-.56757-.5814H.567567C.254156 20.9303 0 21.1907 0 21.5117c0 .3212.254156.5814.567567.5814zM7.80187 8.81432c.11091.11348.25609.17023.40139.17023.50093 0 .76019-.62488.40138-.99256L6.95347 6.3006c-.22169-.22697-.58096-.22697-.80265 0-.22169.2271-.22169.59523 0 .82221l1.65105 1.69151zM27.8111 4.91805c.2242 0 .4366-.13698.526-.36279l.879-2.21616c.118-.29744-.0217-.63663-.3122-.75744-.2904-.1207-.6215.02233-.7394.31977l-.879 2.21616c-.1523.38395.1259.80046.5256.80046zM40.3463 13.1443c-.1219-.2958-.4546-.4344-.7438-.3096l-2.1513.9305c-.2887.1249-.4239.4659-.302.7617.122.2959.4546.4343.7437.3096l2.1513-.9305c.2887-.1249.424-.466.3021-.7617zM4.10717 28.1866l-2.15131.9303c-.28878.1249-.42397.4659-.30217.7618.12214.2962.45507.434.74363.3095l2.15119-.9304c.28878-.1248.42397-.466.30217-.7618-.1218-.2958-.45485-.4343-.74351-.3094zM40.4556 29.608c.118-.2975-.0217-.6366-.3122-.7575l-2.1634-.9004c-.2903-.1208-.6216.0223-.7395.3199-.118.2974.0217.6366.3122.7574l2.1634.9004c.2909.1213.6219-.023.7395-.3198zM1.85641 14.1726l2.16345.9003c.28901.1204.62092-.021.73943-.3199.11805-.2974-.0218-.6366-.31216-.7574l-2.16345-.9004c-.29083-.121-.62149.0224-.73943.3199-.11805.2975.02168.6365.31216.7575zM13.4377 4.65943c.0915.22198.3018.35547.5231.35547.4028 0 .6813-.42267.5226-.80767l-.9083-2.2036c-.122-.2957-.455-.43442-.7437-.30953-.2887.12488-.4239.46593-.3021.76174l.9084 2.20359zM28 41.8604H14c-.3134 0-.5676.2602-.5676.5813v.7753c0 1.8166 1.4428 3.2945 3.2162 3.2945h.4897v.0581c0 1.8916 1.5021 3.4303 3.3486 3.4303h1.0261c1.8465 0 3.3486-1.5387 3.3486-3.4303v-.0581h.4897c1.7734 0 3.2163-1.4779 3.2163-3.2945v-.7753c0-.3211-.2541-.5813-.5676-.5813zm-4.2734 4.7092c0 1.2503-.993 2.2675-2.2135 2.2675H20.487c-1.2206 0-2.2135-1.0172-2.2135-2.2675v-.0581h5.4531v.0581zm3.7059-3.3526c0 1.1753-.9337 2.1317-2.0812 2.1317h-8.7027c-1.1475 0-2.0811-.9564-2.0811-2.1317v-.1939h12.8648l.0002.1939z"/>
</svg>
